[
  {
    "file": "hue-test-1.png",
    "author": "Aurélio A. Heckert",
    "license": "CC-by-sa"
  },
  {
    "file": "hue-test-2.png",
    "author": "Aurélio A. Heckert",
    "license": "CC-by-sa"
  },
  {
    "file": "nana-bg-blue-bad-light.jpg",
    "author": "Aurélio A. Heckert",
    "license": "CC-by-sa"
  },
  {
    "file": "nana-bg-blue-sunny.jpg",
    "author": "Aurélio A. Heckert",
    "license": "CC-by-sa"
  },
  {
    "file": "nana-bg-dark-red.jpg",
    "author": "Aurélio A. Heckert",
    "license": "CC-by-sa"
  },
  {
    "file": "bluebox_im_Heureka_01.jpg",
    "author": "André Riemann",
    "license": "GFDL",
    "src": "http://pt.wikipedia.org/wiki/Ficheiro:Bluebox_im_Heureka_01.jpg"
  },
  {
    "file": "VirtuellesStudio_Greenbox.jpg",
    "author": "Phrontis",
    "license": "CC-by-sa",
    "src": "http://en.wikipedia.org/wiki/File:VirtuellesStudio_Greenbox.jpg"
  },
  {
    "file": "hero.jpg",
    "author": "Rubendene",
    "license": "CC-by-sa",
    "src": "http://commons.wikimedia.org/wiki/File:Chroma_key_hero.jpg"
  },
  {
    "file": "green-room-1.jpg",
    "author": "Clint Chilcott",
    "license": "CC-by-nc",
    "src": "https://www.flickr.com/photos/_elemenoh_/3053469077"
  },
  {
    "file": "green-room-2.jpg",
    "author": "Clint Chilcott",
    "license": "CC-by-nc",
    "src": "https://www.flickr.com/photos/_elemenoh_/3053469077"
  },
  {
    "file": "blue-room.jpg",
    "author": "Aaron Landry",
    "license": "CC-by-nc-sa",
    "src": "https://www.flickr.com/photos/s4xton/435192261"
  },
  {
    "file": "actress-and-kevin.jpg",
    "author": "Kevin Christopher Burke",
    "license": "CC-by-sa",
    "src": "https://www.flickr.com/photos/nomadicsun/5884666592"
  },
  {
    "file": "band-1.jpg",
    "author": "Benoit Champagne",
    "license": "CC-by",
    "src": "https://www.flickr.com/photos/benoitchampagne/6850066453"
  },
  {
    "file": "band-2.jpg",
    "author": "Benoit Champagne",
    "license": "CC-by",
    "src": "https://www.flickr.com/photos/benoitchampagne/6850060983"
  },
  {
    "file": "band-3.jpg",
    "author": "Benoit Champagne",
    "license": "CC-by",
    "src": "https://www.flickr.com/photos/benoitchampagne/6850039953"
  }
]
